<svg xmlns="http://www.w3.org/2000/svg" width="24" height="24" viewBox="0 0 24 24">
  <path fill="#FFF" d="M465.484639,141.515361 C466.130825,142.161546 467.181291,142.161546 467.827477,141.515361 L477,132.342837 L486.172523,141.515361 C486.818709,142.161546 487.869175,142.161546 488.515361,141.515361 C489.161546,140.869175 489.161546,139.818709 488.515361,139.172523 L479.342837,130 L488.515361,120.827477 C489.161546,120.181291 489.161546,119.130825 488.515361,118.484639 C487.869175,117.838454 486.818709,117.838454 486.172523,118.484639 L477,127.657163 L467.827477,118.484639 C467.181291,117.838454 466.130825,117.838454 465.484639,118.484639 C464.838454,119.130825 464.838454,120.181291 465.484639,120.827477 L474.657163,130 L465.484639,139.172523 C464.838454,139.818709 464.838454,140.869175 465.484639,141.515361 Z" transform="translate(-465 -118)"/>
</svg>
